<?xml version="1.0" encoding="UTF-8" standalone="no"?>
<svg
   xmlns:dc="http://purl.org/dc/elements/1.1/"
   xmlns:cc="http://creativecommons.org/ns#"
   xmlns:rdf="http://www.w3.org/1999/02/22-rdf-syntax-ns#"
   xmlns:svg="http://www.w3.org/2000/svg"
   xmlns="http://www.w3.org/2000/svg"
   xmlns:sodipodi="http://sodipodi.sourceforge.net/DTD/sodipodi-0.dtd"
   xmlns:inkscape="http://www.inkscape.org/namespaces/inkscape"
   width="210mm"
   height="297mm"
   viewBox="0 0 210 297"
   version="1.1"
   id="svg8"
   inkscape:version="1.0.2 (e86c870879, 2021-01-15)"
   sodipodi:docname="graph.svg">
  <defs
     id="defs2" />
  <sodipodi:namedview
     id="base"
     pagecolor="#ffffff"
     bordercolor="#666666"
     borderopacity="1.0"
     inkscape:pageopacity="0.0"
     inkscape:pageshadow="2"
     inkscape:zoom="2.8"
     inkscape:cx="205.35367"
     inkscape:cy="432.14659"
     inkscape:document-units="mm"
     inkscape:current-layer="layer1"
     inkscape:document-rotation="0"
     showgrid="false"
     inkscape:window-width="1856"
     inkscape:window-height="1051"
     inkscape:window-x="64"
     inkscape:window-y="0"
     inkscape:window-maximized="1" />
  <metadata
     id="metadata5">
    <rdf:RDF>
      <cc:Work
         rdf:about="">
        <dc:format>image/svg+xml</dc:format>
        <dc:type
           rdf:resource="http://purl.org/dc/dcmitype/StillImage" />
        <dc:title></dc:title>
      </cc:Work>
    </rdf:RDF>
  </metadata>
  <g
     inkscape:label="Calque 1"
     inkscape:groupmode="layer"
     id="layer1">
    <path
       id="rect835"
       style="fill:none;fill-rule:evenodd;stroke:#000000;stroke-width:0.529166;stroke-miterlimit:4;stroke-dasharray:none;stroke-dashoffset:0;stroke-opacity:1"
       d="M 0,0 H 105.83333 V 66.145833 H 0 Z"
       sodipodi:nodetypes="ccccc" />
    <path
       id="rect835-3"
       style="fill:none;fill-rule:evenodd;stroke:#000000;stroke-width:0.529167;stroke-miterlimit:4;stroke-dasharray:0.529167, 0.529167;stroke-dashoffset:0;stroke-opacity:1"
       d="M 7.9375,8.0642268 97.895833,7.9375 V 58.208333 H 7.9375 Z"
       sodipodi:nodetypes="ccccc" />
    <text
       xml:space="preserve"
       style="font-style:normal;font-weight:normal;font-size:2.82222px;line-height:1.25;font-family:sans-serif;fill:#000000;fill-opacity:1;stroke:none;stroke-width:0.264583"
       x="-6.1819692"
       y="-0.62801546"
       id="text860"><tspan
         sodipodi:role="line"
         id="tspan858"
         x="-6.1819692"
         y="-0.62801546"
         style="font-size:2.82222px;stroke-width:0.264583">(0,0)</tspan></text>
    <text
       xml:space="preserve"
       style="font-style:normal;font-weight:normal;font-size:2.82222px;line-height:1.25;font-family:sans-serif;fill:#000000;fill-opacity:1;stroke:none;stroke-width:0.264583"
       x="106.86996"
       y="68.68119"
       id="text860-6"><tspan
         sodipodi:role="line"
         id="tspan858-7"
         x="106.86996"
         y="68.68119"
         style="font-size:2.82222px;stroke-width:0.264583">(w,h)</tspan></text>
    <text
       xml:space="preserve"
       style="font-style:normal;font-weight:normal;font-size:2.82222px;line-height:1.25;font-family:sans-serif;fill:#000000;fill-opacity:1;stroke:none;stroke-width:0.264583"
       x="4.1689916"
       y="6.0636849"
       id="text860-5"><tspan
         sodipodi:role="line"
         id="tspan858-3"
         x="4.1689916"
         y="6.0636849"
         style="font-size:2.82222px;stroke-width:0.264583">(x<tspan
   style="font-size:65%;baseline-shift:sub"
   id="tspan1180">o</tspan>,y<tspan
   style="font-size:65%;baseline-shift:sub"
   id="tspan1182">o</tspan>)</tspan></text>
    <text
       xml:space="preserve"
       style="font-style:normal;font-weight:normal;font-size:2.82222px;line-height:1.25;font-family:sans-serif;fill:#000000;fill-opacity:1;stroke:none;stroke-width:0.264583"
       x="93.887215"
       y="61.194508"
       id="text860-5-5"><tspan
         sodipodi:role="line"
         id="tspan858-3-6"
         x="93.887215"
         y="61.194508"
         style="font-size:2.82222px;stroke-width:0.264583">(x<tspan
   style="font-size:65%;baseline-shift:sub"
   id="tspan1184">m</tspan>,y<tspan
   style="font-size:65%;baseline-shift:sub"
   id="tspan1186">m</tspan>)</tspan></text>
    <text
       xml:space="preserve"
       style="font-style:normal;font-weight:normal;font-size:2.82222px;line-height:1.25;font-family:sans-serif;fill:#000000;fill-opacity:1;stroke:none;stroke-width:0.264583"
       x="9.449584"
       y="11.862669"
       id="text860-5-2"><tspan
         sodipodi:role="line"
         id="tspan858-3-9"
         x="9.449584"
         y="11.862669"
         style="font-size:2.82222px;stroke-width:0.264583">(x'<tspan
   style="font-size:65%;baseline-shift:sub"
   id="tspan1178">o</tspan>,y'<tspan
   style="font-size:65%;baseline-shift:sub"
   id="tspan1176">m</tspan>)</tspan></text>
    <text
       xml:space="preserve"
       style="font-style:normal;font-weight:normal;font-size:2.82222px;line-height:1.25;font-family:sans-serif;fill:#000000;fill-opacity:1;stroke:none;stroke-width:0.264583"
       x="86.99559"
       y="56.459282"
       id="text860-5-5-1"><tspan
         sodipodi:role="line"
         id="tspan858-3-6-2"
         x="86.99559"
         y="56.459282"
         style="font-size:2.82222px;stroke-width:0.264583">(x'<tspan
   style="font-size:65%;baseline-shift:sub"
   id="tspan1172">m</tspan>,y'<tspan
   style="font-size:65%;baseline-shift:sub"
   id="tspan1174">o</tspan>)</tspan></text>
    <g
       id="g1257"
       transform="translate(2.9333642,-6.4824364)">
      <text
         xml:space="preserve"
         style="font-style:normal;font-weight:normal;font-size:2.82222px;line-height:1.25;font-family:sans-serif;fill:#000000;fill-opacity:1;stroke:none;stroke-width:0.264583"
         x="140.1142"
         y="16.165607"
         id="text860-5-5-1-7"><tspan
           sodipodi:role="line"
           id="tspan858-3-6-2-0"
           x="140.1142"
           y="16.165607"
           style="font-size:2.82222px;stroke-width:0.264583">a<tspan
   style="font-size:65%;baseline-shift:sub"
   id="tspan1008">x</tspan>.x' + b<tspan
   style="font-size:65%;baseline-shift:sub"
   id="tspan1006">x</tspan> = x  avec </tspan></text>
      <path
         style="fill:none;stroke:#000000;stroke-width:0.264583px;stroke-linecap:butt;stroke-linejoin:miter;stroke-opacity:1"
         d="m 167.66737,12.514909 -3.175,2.910417 3.175,2.910416"
         id="path1010"
         sodipodi:nodetypes="ccc" />
      <text
         xml:space="preserve"
         style="font-style:normal;font-weight:normal;font-size:2.82222px;line-height:1.25;font-family:sans-serif;fill:#000000;fill-opacity:1;stroke:none;stroke-width:0.264583"
         x="168.73825"
         y="13.040827"
         id="text860-5-5-1-7-9"><tspan
           sodipodi:role="line"
           id="tspan858-3-6-2-0-3"
           x="168.73825"
           y="13.040827"
           style="font-size:2.82222px;stroke-width:0.264583">a<tspan
   style="font-size:65%;baseline-shift:sub"
   id="tspan1008-6">x</tspan>.x'<tspan
   style="font-size:65%;baseline-shift:sub"
   id="tspan1046">o</tspan> + b<tspan
   style="font-size:65%;baseline-shift:sub"
   id="tspan1006-0">x</tspan> = x<tspan
   style="font-size:65%;baseline-shift:sub"
   id="tspan1044">o</tspan></tspan></text>
      <text
         xml:space="preserve"
         style="font-style:normal;font-weight:normal;font-size:2.82222px;line-height:1.25;font-family:sans-serif;fill:#000000;fill-opacity:1;stroke:none;stroke-width:0.264583"
         x="168.73825"
         y="19.281429"
         id="text860-5-5-1-7-9-6"><tspan
           sodipodi:role="line"
           id="tspan858-3-6-2-0-3-2"
           x="168.73825"
           y="19.281429"
           style="font-size:2.82222px;stroke-width:0.264583">a<tspan
   style="font-size:65%;baseline-shift:sub"
   id="tspan1008-6-6">x</tspan>.x'<tspan
   style="font-size:65%;baseline-shift:sub"
   id="tspan1046-1">m</tspan> + b<tspan
   style="font-size:65%;baseline-shift:sub"
   id="tspan1006-0-8">x</tspan> = x<tspan
   style="font-size:65%;baseline-shift:sub"
   id="tspan1044-7">m</tspan></tspan></text>
    </g>
    <circle
       style="fill:#000000;fill-opacity:1;fill-rule:evenodd;stroke:none;stroke-width:0.529167;stroke-miterlimit:4;stroke-dasharray:0.529167, 0.529167;stroke-dashoffset:0;stroke-opacity:1"
       id="path1206"
       cx="33.962914"
       cy="23.409819"
       r="0.52916664" />
    <text
       xml:space="preserve"
       style="font-style:normal;font-weight:normal;font-size:2.82222px;line-height:1.25;font-family:sans-serif;fill:#000000;fill-opacity:1;stroke:none;stroke-width:0.264583"
       x="34.572308"
       y="22.388405"
       id="text860-5-2-9"><tspan
         sodipodi:role="line"
         id="tspan858-3-9-4"
         x="34.572308"
         y="22.388405"
         style="font-size:2.82222px;stroke-width:0.264583">(x',y')</tspan></text>
    <g
       id="g1257-4"
       transform="translate(2.9333642,7.3102204)">
      <text
         xml:space="preserve"
         style="font-style:normal;font-weight:normal;font-size:2.82222px;line-height:1.25;font-family:sans-serif;fill:#000000;fill-opacity:1;stroke:none;stroke-width:0.264583"
         x="140.1142"
         y="16.165607"
         id="text860-5-5-1-7-5"><tspan
           sodipodi:role="line"
           id="tspan858-3-6-2-0-03"
           x="140.1142"
           y="16.165607"
           style="font-size:2.82222px;stroke-width:0.264583">a<tspan
   style="font-size:65%;baseline-shift:sub"
   id="tspan1008-61">y</tspan>.y' + b<tspan
   style="font-size:65%;baseline-shift:sub"
   id="tspan1006-06">y</tspan> = y  avec </tspan></text>
      <path
         style="fill:none;stroke:#000000;stroke-width:0.264583px;stroke-linecap:butt;stroke-linejoin:miter;stroke-opacity:1"
         d="m 167.66737,12.514909 -3.175,2.910417 3.175,2.910416"
         id="path1010-3"
         sodipodi:nodetypes="ccc" />
      <text
         xml:space="preserve"
         style="font-style:normal;font-weight:normal;font-size:2.82222px;line-height:1.25;font-family:sans-serif;fill:#000000;fill-opacity:1;stroke:none;stroke-width:0.264583"
         x="168.73825"
         y="13.040827"
         id="text860-5-5-1-7-9-2"><tspan
           sodipodi:role="line"
           id="tspan858-3-6-2-0-3-0"
           x="168.73825"
           y="13.040827"
           style="font-size:2.82222px;stroke-width:0.264583">a<tspan
   style="font-size:65%;baseline-shift:sub"
   id="tspan1008-6-61">y</tspan>.y'<tspan
   style="font-size:65%;baseline-shift:sub"
   id="tspan1046-5">o</tspan> + b<tspan
   style="font-size:65%;baseline-shift:sub"
   id="tspan1006-0-5">y</tspan> = y<tspan
   style="font-size:65%;baseline-shift:sub"
   id="tspan1044-4">m</tspan></tspan></text>
      <text
         xml:space="preserve"
         style="font-style:normal;font-weight:normal;font-size:2.82222px;line-height:1.25;font-family:sans-serif;fill:#000000;fill-opacity:1;stroke:none;stroke-width:0.264583"
         x="168.73825"
         y="19.281429"
         id="text860-5-5-1-7-9-6-7"><tspan
           sodipodi:role="line"
           id="tspan858-3-6-2-0-3-2-6"
           x="168.73825"
           y="19.281429"
           style="font-size:2.82222px;stroke-width:0.264583">a<tspan
   style="font-size:65%;baseline-shift:sub"
   id="tspan1008-6-6-5">y</tspan>.y'<tspan
   style="font-size:65%;baseline-shift:sub"
   id="tspan1046-1-6">m</tspan> + b<tspan
   style="font-size:65%;baseline-shift:sub"
   id="tspan1006-0-8-9">y</tspan> = y<tspan
   style="font-size:65%;baseline-shift:sub"
   id="tspan1044-7-3">o</tspan></tspan></text>
    </g>
    <text
       xml:space="preserve"
       style="font-style:normal;font-weight:normal;font-size:2.82222px;line-height:1.25;font-family:sans-serif;fill:#000000;fill-opacity:1;stroke:none;stroke-width:0.264583"
       x="129.119"
       y="16.95517"
       id="text860-7"><tspan
         sodipodi:role="line"
         id="tspan858-4"
         x="129.119"
         y="16.95517"
         style="font-size:2.82222px;stroke-width:0.264583">Linéaire</tspan></text>
    <text
       xml:space="preserve"
       style="font-style:normal;font-weight:normal;font-size:2.82222px;line-height:1.25;font-family:sans-serif;fill:#000000;fill-opacity:1;stroke:none;stroke-width:0.264583"
       x="125.04137"
       y="45.869888"
       id="text860-7-5"><tspan
         sodipodi:role="line"
         id="tspan858-4-2"
         x="125.04137"
         y="45.869888"
         style="font-size:2.82222px;stroke-width:0.264583">Logarithme</tspan></text>
    <g
       id="g1257-5"
       transform="translate(2.9333642,29.70876)">
      <text
         xml:space="preserve"
         style="font-style:normal;font-weight:normal;font-size:2.82222px;line-height:1.25;font-family:sans-serif;fill:#000000;fill-opacity:1;stroke:none;stroke-width:0.264583"
         x="140.1142"
         y="16.165607"
         id="text860-5-5-1-7-4"><tspan
           sodipodi:role="line"
           id="tspan858-3-6-2-0-7"
           x="140.1142"
           y="16.165607"
           style="font-size:2.82222px;stroke-width:0.264583">a<tspan
   style="font-size:65%;baseline-shift:sub"
   id="tspan1008-4">x</tspan>.log(x') + b<tspan
   style="font-size:65%;baseline-shift:sub"
   id="tspan1006-4">x</tspan> = x  avec </tspan></text>
      <path
         style="fill:none;stroke:#000000;stroke-width:0.264583px;stroke-linecap:butt;stroke-linejoin:miter;stroke-opacity:1"
         d="m 173.48824,12.514909 -3.175,2.910417 3.175,2.910416"
         id="path1010-30"
         sodipodi:nodetypes="ccc" />
      <text
         xml:space="preserve"
         style="font-style:normal;font-weight:normal;font-size:2.82222px;line-height:1.25;font-family:sans-serif;fill:#000000;fill-opacity:1;stroke:none;stroke-width:0.264583"
         x="174.55901"
         y="13.040827"
         id="text860-5-5-1-7-9-7"><tspan
           sodipodi:role="line"
           id="tspan858-3-6-2-0-3-8"
           x="174.55901"
           y="13.040827"
           style="font-size:2.82222px;stroke-width:0.264583">a<tspan
   style="font-size:65%;baseline-shift:sub"
   id="tspan1008-6-68">x</tspan>.log(x'<tspan
   style="font-size:65%;baseline-shift:sub"
   id="tspan1046-8">o</tspan>) + b<tspan
   style="font-size:65%;baseline-shift:sub"
   id="tspan1006-0-4">x</tspan> = x<tspan
   style="font-size:65%;baseline-shift:sub"
   id="tspan1044-3">o</tspan></tspan></text>
      <text
         xml:space="preserve"
         style="font-style:normal;font-weight:normal;font-size:2.82222px;line-height:1.25;font-family:sans-serif;fill:#000000;fill-opacity:1;stroke:none;stroke-width:0.264583"
         x="174.55901"
         y="19.281429"
         id="text860-5-5-1-7-9-6-1"><tspan
           sodipodi:role="line"
           id="tspan858-3-6-2-0-3-2-4"
           x="174.55901"
           y="19.281429"
           style="font-size:2.82222px;stroke-width:0.264583">a<tspan
   style="font-size:65%;baseline-shift:sub"
   id="tspan1008-6-6-9">x</tspan>.log(x'<tspan
   style="font-size:65%;baseline-shift:sub"
   id="tspan1483">m</tspan>) + b<tspan
   style="font-size:65%;baseline-shift:sub"
   id="tspan1006-0-8-0">x</tspan> = x<tspan
   style="font-size:65%;baseline-shift:sub"
   id="tspan1044-7-6">m</tspan></tspan></text>
    </g>
    <g
       id="g1257-8"
       transform="translate(3.176397,48.400997)">
      <text
         xml:space="preserve"
         style="font-style:normal;font-weight:normal;font-size:2.82222px;line-height:1.25;font-family:sans-serif;fill:#000000;fill-opacity:1;stroke:none;stroke-width:0.264583"
         x="140.1142"
         y="16.165607"
         id="text860-5-5-1-7-92"><tspan
           sodipodi:role="line"
           id="tspan858-3-6-2-0-6"
           x="140.1142"
           y="16.165607"
           style="font-size:2.82222px;stroke-width:0.264583">a<tspan
   style="font-size:65%;baseline-shift:sub"
   id="tspan1008-64">x</tspan>.(1/x') + b<tspan
   style="font-size:65%;baseline-shift:sub"
   id="tspan1006-9">x</tspan> = x  avec </tspan></text>
      <path
         style="fill:none;stroke:#000000;stroke-width:0.264583px;stroke-linecap:butt;stroke-linejoin:miter;stroke-opacity:1"
         d="m 173.48824,12.514909 -3.175,2.910417 3.175,2.910416"
         id="path1010-5"
         sodipodi:nodetypes="ccc" />
      <text
         xml:space="preserve"
         style="font-style:normal;font-weight:normal;font-size:2.82222px;line-height:1.25;font-family:sans-serif;fill:#000000;fill-opacity:1;stroke:none;stroke-width:0.264583"
         x="174.55901"
         y="13.040827"
         id="text860-5-5-1-7-9-0"><tspan
           sodipodi:role="line"
           id="tspan858-3-6-2-0-3-4"
           x="174.55901"
           y="13.040827"
           style="font-size:2.82222px;stroke-width:0.264583">a<tspan
   style="font-size:65%;baseline-shift:sub"
   id="tspan1008-6-8">x</tspan>.(1/x'<tspan
   style="font-size:65%;baseline-shift:sub"
   id="tspan1046-7">o</tspan>) + b<tspan
   style="font-size:65%;baseline-shift:sub"
   id="tspan1006-0-1">x</tspan> = x<tspan
   style="font-size:65%;baseline-shift:sub"
   id="tspan1044-72">o</tspan></tspan></text>
      <text
         xml:space="preserve"
         style="font-style:normal;font-weight:normal;font-size:2.82222px;line-height:1.25;font-family:sans-serif;fill:#000000;fill-opacity:1;stroke:none;stroke-width:0.264583"
         x="174.55901"
         y="19.281429"
         id="text860-5-5-1-7-9-6-72"><tspan
           sodipodi:role="line"
           id="tspan858-3-6-2-0-3-2-2"
           x="174.55901"
           y="19.281429"
           style="font-size:2.82222px;stroke-width:0.264583">a<tspan
   style="font-size:65%;baseline-shift:sub"
   id="tspan1008-6-6-6">x</tspan>.(1/x'<tspan
   style="font-size:65%;baseline-shift:sub"
   id="tspan1046-1-1">m</tspan>) + b<tspan
   style="font-size:65%;baseline-shift:sub"
   id="tspan1006-0-8-06">x</tspan> = x<tspan
   style="font-size:65%;baseline-shift:sub"
   id="tspan1044-7-1">m</tspan></tspan></text>
    </g>
    <text
       xml:space="preserve"
       style="font-style:normal;font-weight:normal;font-size:2.82222px;line-height:1.25;font-family:sans-serif;fill:#000000;fill-opacity:1;stroke:none;stroke-width:0.264583"
       x="125.89162"
       y="64.577972"
       id="text860-7-59"><tspan
         sodipodi:role="line"
         id="tspan858-4-4"
         x="125.89162"
         y="64.577972"
         style="font-size:2.82222px;stroke-width:0.264583">Réciprocal</tspan></text>
    <g
       id="g1257-8-9"
       transform="translate(4.0413827,62.100787)">
      <text
         xml:space="preserve"
         style="font-style:normal;font-weight:normal;font-size:2.82222px;line-height:1.25;font-family:sans-serif;fill:#000000;fill-opacity:1;stroke:none;stroke-width:0.264583"
         x="140.1142"
         y="16.165607"
         id="text860-5-5-1-7-92-0"><tspan
           sodipodi:role="line"
           id="tspan858-3-6-2-0-6-9"
           x="140.1142"
           y="16.165607"
           style="font-size:2.82222px;stroke-width:0.264583">a<tspan
   style="font-size:65%;baseline-shift:sub"
   id="tspan1008-64-1">x</tspan>.(1/(x'+x<tspan
   style="font-size:65%;baseline-shift:sub"
   id="tspan1677">off</tspan>)) + b<tspan
   style="font-size:65%;baseline-shift:sub"
   id="tspan1006-9-7">x</tspan> = x  avec </tspan></text>
      <path
         style="fill:none;stroke:#000000;stroke-width:0.264583px;stroke-linecap:butt;stroke-linejoin:miter;stroke-opacity:1"
         d="m 179.83828,12.514909 -3.175,2.910417 3.175,2.910416"
         id="path1010-5-7"
         sodipodi:nodetypes="ccc" />
      <text
         xml:space="preserve"
         style="font-style:normal;font-weight:normal;font-size:2.82222px;line-height:1.25;font-family:sans-serif;fill:#000000;fill-opacity:1;stroke:none;stroke-width:0.264583"
         x="180.90892"
         y="13.040827"
         id="text860-5-5-1-7-9-0-1"><tspan
           sodipodi:role="line"
           id="tspan858-3-6-2-0-3-4-1"
           x="180.90892"
           y="13.040827"
           style="font-size:2.82222px;stroke-width:0.264583">a<tspan
   style="font-size:65%;baseline-shift:sub"
   id="tspan1008-6-8-5">x</tspan>.(1/(x'<tspan
   style="font-size:65%;baseline-shift:sub"
   id="tspan1046-7-9">o</tspan>+xoff)) + b<tspan
   style="font-size:65%;baseline-shift:sub"
   id="tspan1006-0-1-7">x</tspan> = x<tspan
   style="font-size:65%;baseline-shift:sub"
   id="tspan1044-72-7">o</tspan></tspan></text>
      <text
         xml:space="preserve"
         style="font-style:normal;font-weight:normal;font-size:2.82222px;line-height:1.25;font-family:sans-serif;fill:#000000;fill-opacity:1;stroke:none;stroke-width:0.264583"
         x="180.90892"
         y="19.281429"
         id="text860-5-5-1-7-9-6-72-6"><tspan
           sodipodi:role="line"
           id="tspan858-3-6-2-0-3-2-2-7"
           x="180.90892"
           y="19.281429"
           style="font-size:2.82222px;stroke-width:0.264583">a<tspan
   style="font-size:65%;baseline-shift:sub"
   id="tspan1008-6-6-6-3">x</tspan>.(1/(x'<tspan
   style="font-size:65%;baseline-shift:sub"
   id="tspan1046-1-1-6">m</tspan>+xoff)) + b<tspan
   style="font-size:65%;baseline-shift:sub"
   id="tspan1006-0-8-06-5">x</tspan> = x<tspan
   style="font-size:65%;baseline-shift:sub"
   id="tspan1044-7-1-6">m</tspan></tspan></text>
    </g>
    <text
       xml:space="preserve"
       style="font-style:normal;font-weight:normal;font-size:2.82222px;line-height:1.25;font-family:sans-serif;fill:#000000;fill-opacity:1;stroke:none;stroke-width:0.264583"
       x="117.46215"
       y="78.277763"
       id="text860-7-59-3"><tspan
         sodipodi:role="line"
         id="tspan858-4-4-9"
         x="117.46215"
         y="78.277763"
         style="font-size:2.82222px;stroke-width:0.264583">Réciprocal Offset</tspan></text>
    <text
       xml:space="preserve"
       style="font-style:normal;font-weight:normal;font-size:2.82222px;line-height:1.25;font-family:sans-serif;fill:#000000;fill-opacity:1;stroke:none;stroke-width:0.264583"
       x="4.8674455"
       y="78.5485"
       id="text860-7-59-4"><tspan
         sodipodi:role="line"
         id="tspan858-4-4-8"
         x="4.8674455"
         y="78.5485"
         style="font-size:2.82222px;stroke-width:0.264583">Axis Rect = {(x<tspan
   style="font-size:65%;baseline-shift:sub"
   id="tspan1723">o</tspan>,y<tspan
   style="font-size:65%;baseline-shift:sub"
   id="tspan1721">o</tspan>),(x<tspan
   style="font-size:65%;baseline-shift:sub"
   id="tspan1719">m</tspan>,y<tspan
   style="font-size:65%;baseline-shift:sub"
   id="tspan1717">m</tspan>)} = {x<tspan
   style="font-size:65%;baseline-shift:sub"
   id="tspan1727">o</tspan>,y<tspan
   style="font-size:65%;baseline-shift:sub"
   id="tspan1725">o</tspan>,w,h}</tspan></text>
    <text
       xml:space="preserve"
       style="font-style:normal;font-weight:normal;font-size:2.82222px;line-height:1.25;font-family:sans-serif;fill:#000000;fill-opacity:1;stroke:none;stroke-width:0.264583"
       x="4.8095679"
       y="92.872154"
       id="text860-7-59-4-1"><tspan
         sodipodi:role="line"
         id="tspan858-4-4-8-2"
         x="4.8095679"
         y="92.872154"
         style="font-size:2.82222px;stroke-width:0.264583">Tick interval : </tspan></text>
    <text
       xml:space="preserve"
       style="font-style:normal;font-weight:normal;font-size:2.82222px;line-height:1.25;font-family:sans-serif;fill:#000000;fill-opacity:1;stroke:none;stroke-width:0.264583"
       x="23.685368"
       y="92.905228"
       id="text860-7-59-4-1-5"><tspan
         sodipodi:role="line"
         id="tspan858-4-4-8-2-0"
         x="23.685368"
         y="92.905228"
         style="font-size:2.82222px;stroke-width:0.264583">Linéaire : Dx = a<tspan
   style="font-size:65%;baseline-shift:sub"
   id="tspan1837">x</tspan>.Dx'</tspan></text>
    <text
       xml:space="preserve"
       style="font-style:normal;font-weight:normal;font-size:2.82222px;line-height:1.25;font-family:sans-serif;fill:#000000;fill-opacity:1;stroke:none;stroke-width:0.264583"
       x="23.685368"
       y="97.92408"
       id="text860-7-59-4-1-9"><tspan
         sodipodi:role="line"
         id="tspan858-4-4-8-2-6"
         x="23.685368"
         y="97.92408"
         style="font-size:2.82222px;stroke-width:0.264583">Logarithme : major : à chaque x' = 10<tspan
   style="font-size:65%;baseline-shift:super"
   id="tspan1839">k</tspan>; minor : Dx = 10<tspan
   style="font-size:65%;baseline-shift:super"
   id="tspan1847">n</tspan></tspan></text>
    <text
       xml:space="preserve"
       style="font-style:normal;font-weight:normal;font-size:2.82222px;line-height:1.25;font-family:sans-serif;fill:#000000;fill-opacity:1;stroke:none;stroke-width:0.264583"
       x="23.685368"
       y="102.55695"
       id="text860-7-59-4-1-3"><tspan
         sodipodi:role="line"
         id="tspan858-4-4-8-2-8"
         x="23.685368"
         y="102.55695"
         style="font-size:2.82222px;stroke-width:0.264583">Reciprocal : Dx' variable, utiliser x=f(x'+k.Dx') </tspan></text>
    <text
       xml:space="preserve"
       style="font-style:normal;font-weight:normal;font-size:2.82222px;line-height:1.25;font-family:sans-serif;fill:#000000;fill-opacity:1;stroke:none;stroke-width:0.264583"
       x="23.685368"
       y="107.39637"
       id="text860-7-59-4-1-56"><tspan
         sodipodi:role="line"
         id="tspan858-4-4-8-2-1"
         x="23.685368"
         y="107.39637"
         style="font-size:2.82222px;stroke-width:0.264583">Reciprocal Offset : Dx' variable, utiliser x=f(x'+k.Dx') </tspan></text>
    <text
       xml:space="preserve"
       style="font-style:normal;font-weight:normal;font-size:2.82222px;line-height:1.25;font-family:sans-serif;fill:#000000;fill-opacity:1;stroke:none;stroke-width:0.264583"
       x="4.8095679"
       y="115.65245"
       id="text860-7-59-4-1-1"><tspan
         sodipodi:role="line"
         id="tspan858-4-4-8-2-5"
         x="4.8095679"
         y="115.65245"
         style="font-size:2.82222px;stroke-width:0.264583">Tick labels : À chaque major tick; Définir position par rapport au tick; Ajout d'un shift en (x,y) </tspan></text>
    <text
       xml:space="preserve"
       style="font-style:normal;font-weight:normal;font-size:2.82222px;line-height:1.25;font-family:sans-serif;fill:#000000;fill-opacity:1;stroke:none;stroke-width:0.264583"
       x="4.8095679"
       y="122.73422"
       id="text860-7-59-4-1-1-9"><tspan
         sodipodi:role="line"
         id="tspan858-4-4-8-2-5-8"
         x="4.8095679"
         y="122.73422"
         style="font-size:2.82222px;stroke-width:0.264583">Axis label : Définir position par rapport à l'axe; Ajout d'un shift en (x,y) </tspan></text>
    <text
       xml:space="preserve"
       style="font-style:normal;font-weight:normal;font-size:2.82222px;line-height:1.25;font-family:sans-serif;fill:#000000;fill-opacity:1;stroke:none;stroke-width:0.264583"
       x="4.8095679"
       y="85.631149"
       id="text860-7-59-4-1-4"><tspan
         sodipodi:role="line"
         id="tspan858-4-4-8-2-81"
         x="4.8095679"
         y="85.631149"
         style="font-size:2.82222px;stroke-width:0.264583">Ticks : Définir position par rapport à l'axe </tspan></text>
    <text
       xml:space="preserve"
       style="font-style:normal;font-weight:normal;font-size:2.82222px;line-height:1.25;font-family:sans-serif;fill:#000000;fill-opacity:1;stroke:none;stroke-width:0.264583"
       x="4.8095679"
       y="139.07388"
       id="text860-7-59-4-1-1-9-0"><tspan
         sodipodi:role="line"
         id="tspan858-4-4-8-2-5-8-3"
         x="4.8095679"
         y="139.07388"
         style="font-size:2.82222px;stroke-width:0.264583">Curve : Transformer (x',y') en (x,y); Définir gap en symbole et ligne</tspan></text>
  </g>
</svg>
