<?xml version="1.0" encoding="utf-8"?>
<svg xmlns="http://www.w3.org/2000/svg" xmlns:xlink="http://www.w3.org/1999/xlink" version="1.0" width="1600" height="1000" font-family="Roboto-Regular,Roboto,Arial, Helvetica, sans-serif">
	<g id="x2-axis">
		<g id="axis-line" stroke="black" stroke-linecap="round" stroke-width="3px">
			<path d="M 150,650 H 1450"/>
			<path d="M 150,650 v 10"/>
			<path d="M 280,650 v 10"/>
			<path d="M 410,650 v 10"/>
			<path d="M 540,650 v 10"/>
			<path d="M 670,650 v 10"/>
			<path d="M 800,650 v 10"/>
			<path d="M 930,650 v 10"/>
			<path d="M 1060,650 v 10"/>
			<path d="M 1190,650 v 10"/>
			<path d="M 1320,650 v 10"/>
			<path d="M 1450,650 v 10"/>
			<path d="M 182.5,650 v 5"/>
			<path d="M 215,650 v 5"/>
			<path d="M 247.5,650 v 5"/>
			<path d="M 312.5,650 v 5"/>
			<path d="M 345,650 v 5"/>
			<path d="M 377.5,650 v 5"/>
			<path d="M 442.5,650 v 5"/>
			<path d="M 475,650 v 5"/>
			<path d="M 507.5,650 v 5"/>
			<path d="M 572.5,650 v 5"/>
			<path d="M 605,650 v 5"/>
			<path d="M 637.5,650 v 5"/>
			<path d="M 702.5,650 v 5"/>
			<path d="M 735,650 v 5"/>
			<path d="M 767.5,650 v 5"/>
			<path d="M 832.5,650 v 5"/>
			<path d="M 865,650 v 5"/>
			<path d="M 897.5,650 v 5"/>
			<path d="M 962.5,650 v 5"/>
			<path d="M 995,650 v 5"/>
			<path d="M 1027.5,650 v 5"/>
			<path d="M 1092.5,650 v 5"/>
			<path d="M 1125,650 v 5"/>
			<path d="M 1157.5,650 v 5"/>
			<path d="M 1222.5,650 v 5"/>
			<path d="M 1255,650 v 5"/>
			<path d="M 1287.5,650 v 5"/>
			<path d="M 1352.5,650 v 5"/>
			<path d="M 1385,650 v 5"/>
			<path d="M 1417.5,650 v 5"/>
		</g>
		<g id="axis-ticklabels" text-anchor="middle" dominant-baseline="text-before-edge" font-size="20pt" transform="translate(0,660)">
			<text x="150">0</text>
			<text x="280">0.1</text>
			<text x="410">0.2</text>
			<text x="540">0.3</text>
			<text x="670">0.4</text>
			<text x="800">0.5</text>
			<text x="930">0.6</text>
			<text x="1060">0.7</text>
			<text x="1190">0.8</text>
			<text x="1320">0.9</text>
			<text x="1450">1</text>
		</g>
		<g id="axis-ticklabels" text-anchor="middle" dominant-baseline="text-before-edge" font-size="24pt">
			<text x="800" y="660" >X Axis</text>
		</g>
	</g>
</svg>