<?xml version="1.0" encoding="UTF-8" standalone="no"?>
<!-- Generator: Adobe Illustrator 19.0.0, SVG Export Plug-In . SVG Version: 6.00 Build 0)  -->

<svg
   xmlns:dc="http://purl.org/dc/elements/1.1/"
   xmlns:cc="http://creativecommons.org/ns#"
   xmlns:rdf="http://www.w3.org/1999/02/22-rdf-syntax-ns#"
   xmlns:svg="http://www.w3.org/2000/svg"
   xmlns="http://www.w3.org/2000/svg"
   xmlns:sodipodi="http://sodipodi.sourceforge.net/DTD/sodipodi-0.dtd"
   xmlns:inkscape="http://www.inkscape.org/namespaces/inkscape"
   version="1.1"
   id="Capa_1"
   x="0px"
   y="0px"
   viewBox="0 0 600 400"
   xml:space="preserve"
   sodipodi:docname="CMDprog.svg"
   inkscape:version="0.92.5 (2060ec1f9f, 2020-04-08)"
   inkscape:export-filename="/home/colas/Bureau/symphony.png"
   inkscape:export-xdpi="96"
   inkscape:export-ydpi="96"
   width="600"
   height="400"><metadata
   id="metadata77"><rdf:RDF><cc:Work
       rdf:about=""><dc:format>image/svg+xml</dc:format><dc:type
         rdf:resource="http://purl.org/dc/dcmitype/StillImage" /><dc:title></dc:title></cc:Work></rdf:RDF></metadata><defs
   id="defs75" /><sodipodi:namedview
   pagecolor="#ffffff"
   bordercolor="#666666"
   borderopacity="1"
   objecttolerance="10"
   gridtolerance="10"
   guidetolerance="10"
   inkscape:pageopacity="0"
   inkscape:pageshadow="2"
   inkscape:window-width="1600"
   inkscape:window-height="835"
   id="namedview73"
   showgrid="false"
   inkscape:zoom="0.4609375"
   inkscape:cx="258.16949"
   inkscape:cy="256"
   inkscape:window-x="0"
   inkscape:window-y="0"
   inkscape:window-maximized="1"
   inkscape:current-layer="Capa_1" />



















<text
   xml:space="preserve"
   style="font-style:normal;font-weight:normal;font-size:40px;line-height:1.25;font-family:sans-serif;letter-spacing:0px;word-spacing:0px;fill:#000000;fill-opacity:1;stroke:none"
   x="28.005484"
   y="277.65625"
   id="text891"><tspan
     sodipodi:role="line"
     id="tspan889"
     x="28.005484"
     y="277.65625"
     style="font-style:normal;font-variant:normal;font-weight:bold;font-stretch:normal;font-size:213.33332825px;font-family:Hack;-inkscape-font-specification:'Hack Bold';fill:#e00000;fill-opacity:1">C</tspan></text>
<text
   xml:space="preserve"
   style="font-style:normal;font-weight:normal;font-size:40px;line-height:1.25;font-family:sans-serif;letter-spacing:0px;word-spacing:0px;fill:#0fc750;fill-opacity:1;stroke:none"
   x="161.38377"
   y="277.76041"
   id="text891-2"><tspan
     sodipodi:role="line"
     id="tspan889-2"
     x="161.38377"
     y="277.76041"
     style="font-style:normal;font-variant:normal;font-weight:bold;font-stretch:normal;font-size:213.33332825px;font-family:Hack;-inkscape-font-specification:'Hack Bold';fill:#0fc750;fill-opacity:1">M</tspan></text>
<text
   xml:space="preserve"
   style="font-style:normal;font-weight:normal;font-size:40px;line-height:1.25;font-family:sans-serif;letter-spacing:0px;word-spacing:0px;fill:#ff6b09;fill-opacity:1;stroke:none"
   x="297.47037"
   y="277.76041"
   id="text891-4"><tspan
     sodipodi:role="line"
     id="tspan889-7"
     x="297.47037"
     y="277.76041"
     style="font-style:normal;font-variant:normal;font-weight:bold;font-stretch:normal;font-size:213.33332825px;font-family:Hack;-inkscape-font-specification:'Hack Bold';fill:#ff6b09;fill-opacity:1">D</tspan></text>
<text
   xml:space="preserve"
   style="font-style:normal;font-weight:normal;font-size:40px;line-height:1.25;font-family:sans-serif;letter-spacing:0px;word-spacing:0px;fill:#575757;fill-opacity:1;stroke:none"
   x="438.03619"
   y="266.92709"
   id="text891-7"><tspan
     sodipodi:role="line"
     id="tspan889-5"
     x="438.03619"
     y="266.92709"
     style="font-style:normal;font-variant:normal;font-weight:bold;font-stretch:normal;font-size:213.33332825px;font-family:hack;-inkscape-font-specification:'hack Bold';fill:#575757;fill-opacity:1">&gt;</tspan></text>
</svg>